^C:\USERS\JF_GI\DESKTOP\DEVOIR 5\MODELISATION\DEVOIR5_PATRONS_MODELISATIONOBJ\X64\DEBUG\ADRESSE.OBJ|C:\USERS\JF_GI\DESKTOP\DEVOIR 5\MODELISATION\DEVOIR5_PATRONS_MODELISATIONOBJ\X64\DEBUG\BUILDEROUTIL.OBJ|C:\USERS\JF_GI\DESKTOP\DEVOIR 5\MODELISATION\DEVOIR5_PATRONS_MODELISATIONOBJ\X64\DEBUG\CONSTAT.OBJ|C:\USERS\JF_GI\DESKTOP\DEVOIR 5\MODELISATION\DEVOIR5_PATRONS_MODELISATIONOBJ\X64\DEBUG\CONTEXT.OBJ|C:\USERS\JF_GI\DESKTOP\DEVOIR 5\MODELISATION\DEVOIR5_PATRONS_MODELISATIONOBJ\X64\DEBUG\DEDOMMAGEMENT.OBJ|C:\USERS\JF_GI\DESKTOP\DEVOIR 5\MODELISATION\DEVOIR5_PATRONS_MODELISATIONOBJ\X64\DEBUG\EMPRUNT.OBJ|C:\USERS\JF_GI\DESKTOP\DEVOIR 5\MODELISATION\DEVOIR5_PATRONS_MODELISATIONOBJ\X64\DEBUG\EVALUATION.OBJ|C:\USERS\JF_GI\DESKTOP\DEVOIR 5\MODELISATION\DEVOIR5_PATRONS_MODELISATIONOBJ\X64\DEBUG\FACADEEVALUATION.OBJ|C:\USERS\JF_GI\DESKTOP\DEVOIR 5\MODELISATION\DEVOIR5_PATRONS_MODELISATIONOBJ\X64\DEBUG\FORMAPPROUVE.OBJ|C:\USERS\JF_GI\DESKTOP\DEVOIR 5\MODELISATION\DEVOIR5_PATRONS_MODELISATIONOBJ\X64\DEBUG\FORMEMPRUNTRETOURNE.OBJ|C:\USERS\JF_GI\DESKTOP\DEVOIR 5\MODELISATION\DEVOIR5_PATRONS_MODELISATIONOBJ\X64\DEBUG\FORMNONAPPROUVE.OBJ|C:\USERS\JF_GI\DESKTOP\DEVOIR 5\MODELISATION\DEVOIR5_PATRONS_MODELISATIONOBJ\X64\DEBUG\FORMREMPLI.OBJ|C:\USERS\JF_GI\DESKTOP\DEVOIR 5\MODELISATION\DEVOIR5_PATRONS_MODELISATIONOBJ\X64\DEBUG\OUTIL.OBJ|C:\USERS\JF_GI\DESKTOP\DEVOIR 5\MODELISATION\DEVOIR5_PATRONS_MODELISATIONOBJ\X64\DEBUG\PHOTO.OBJ|C:\USERS\JF_GI\DESKTOP\DEVOIR 5\MODELISATION\DEVOIR5_PATRONS_MODELISATIONOBJ\X64\DEBUG\SOURCE.OBJ|C:\USERS\JF_GI\DESKTOP\DEVOIR 5\MODELISATION\DEVOIR5_PATRONS_MODELISATIONOBJ\X64\DEBUG\STRATEGY.OBJ|C:\USERS\JF_GI\DESKTOP\DEVOIR 5\MODELISATION\DEVOIR5_PATRONS_MODELISATIONOBJ\X64\DEBUG\UTILISATEUR.OBJ
C:\PROGRAM FILES (X86)\WINDOWS KITS\10\LIB\10.0.18362.0\UM\X64\KERNEL32.LIB
C:\PROGRAM FILES (X86)\WINDOWS KITS\10\LIB\10.0.18362.0\UM\X64\USER32.LIB
C:\PROGRAM FILES (X86)\WINDOWS KITS\10\LIB\10.0.18362.0\UM\X64\GDI32.LIB
C:\PROGRAM FILES (X86)\WINDOWS KITS\10\LIB\10.0.18362.0\UM\X64\WINSPOOL.LIB
C:\PROGRAM FILES (X86)\WINDOWS KITS\10\LIB\10.0.18362.0\UM\X64\COMDLG32.LIB
C:\PROGRAM FILES (X86)\WINDOWS KITS\10\LIB\10.0.18362.0\UM\X64\ADVAPI32.LIB
C:\PROGRAM FILES (X86)\WINDOWS KITS\10\LIB\10.0.18362.0\UM\X64\SHELL32.LIB
C:\PROGRAM FILES (X86)\WINDOWS KITS\10\LIB\10.0.18362.0\UM\X64\OLE32.LIB
C:\PROGRAM FILES (X86)\WINDOWS KITS\10\LIB\10.0.18362.0\UM\X64\OLEAUT32.LIB
C:\PROGRAM FILES (X86)\WINDOWS KITS\10\LIB\10.0.18362.0\UM\X64\UUID.LIB
C:\PROGRAM FILES (X86)\WINDOWS KITS\10\LIB\10.0.18362.0\UM\X64\ODBC32.LIB
C:\PROGRAM FILES (X86)\WINDOWS KITS\10\LIB\10.0.18362.0\UM\X64\ODBCCP32.LIB
C:\USERS\JF_GI\DESKTOP\DEVOIR 5\MODELISATION\DEVOIR5_PATRONS_MODELISATIONOBJ\X64\DEBUG\ADRESSE.OBJ
C:\USERS\JF_GI\DESKTOP\DEVOIR 5\MODELISATION\DEVOIR5_PATRONS_MODELISATIONOBJ\X64\DEBUG\BUILDEROUTIL.OBJ
C:\USERS\JF_GI\DESKTOP\DEVOIR 5\MODELISATION\DEVOIR5_PATRONS_MODELISATIONOBJ\X64\DEBUG\CONSTAT.OBJ
C:\USERS\JF_GI\DESKTOP\DEVOIR 5\MODELISATION\DEVOIR5_PATRONS_MODELISATIONOBJ\X64\DEBUG\CONTEXT.OBJ
C:\USERS\JF_GI\DESKTOP\DEVOIR 5\MODELISATION\DEVOIR5_PATRONS_MODELISATIONOBJ\X64\DEBUG\DEDOMMAGEMENT.OBJ
C:\USERS\JF_GI\DESKTOP\DEVOIR 5\MODELISATION\DEVOIR5_PATRONS_MODELISATIONOBJ\X64\DEBUG\EMPRUNT.OBJ
C:\USERS\JF_GI\DESKTOP\DEVOIR 5\MODELISATION\DEVOIR5_PATRONS_MODELISATIONOBJ\X64\DEBUG\EVALUATION.OBJ
C:\USERS\JF_GI\DESKTOP\DEVOIR 5\MODELISATION\DEVOIR5_PATRONS_MODELISATIONOBJ\X64\DEBUG\FACADEEVALUATION.OBJ
C:\USERS\JF_GI\DESKTOP\DEVOIR 5\MODELISATION\DEVOIR5_PATRONS_MODELISATIONOBJ\X64\DEBUG\FORMAPPROUVE.OBJ
C:\USERS\JF_GI\DESKTOP\DEVOIR 5\MODELISATION\DEVOIR5_PATRONS_MODELISATIONOBJ\X64\DEBUG\FORMEMPRUNTRETOURNE.OBJ
C:\USERS\JF_GI\DESKTOP\DEVOIR 5\MODELISATION\DEVOIR5_PATRONS_MODELISATIONOBJ\X64\DEBUG\FORMNONAPPROUVE.OBJ
C:\USERS\JF_GI\DESKTOP\DEVOIR 5\MODELISATION\DEVOIR5_PATRONS_MODELISATIONOBJ\X64\DEBUG\FORMREMPLI.OBJ
C:\USERS\JF_GI\DESKTOP\DEVOIR 5\MODELISATION\DEVOIR5_PATRONS_MODELISATIONOBJ\X64\DEBUG\OUTIL.OBJ
C:\USERS\JF_GI\DESKTOP\DEVOIR 5\MODELISATION\DEVOIR5_PATRONS_MODELISATIONOBJ\X64\DEBUG\PHOTO.OBJ
C:\USERS\JF_GI\DESKTOP\DEVOIR 5\MODELISATION\DEVOIR5_PATRONS_MODELISATIONOBJ\X64\DEBUG\SOURCE.OBJ
C:\USERS\JF_GI\DESKTOP\DEVOIR 5\MODELISATION\DEVOIR5_PATRONS_MODELISATIONOBJ\X64\DEBUG\STRATEGY.OBJ
C:\USERS\JF_GI\DESKTOP\DEVOIR 5\MODELISATION\DEVOIR5_PATRONS_MODELISATIONOBJ\X64\DEBUG\UTILISATEUR.OBJ
C:\WINDOWS\SYSTEM32\TZRES.DLL
C:\WINDOWS\GLOBALIZATION\SORTING\SORTDEFAULT.NLS
C:\PROGRAM FILES (X86)\MICROSOFT VISUAL STUDIO\2019\COMMUNITY\VC\TOOLS\MSVC\14.28.29910\LIB\X64\MSVCPRTD.LIB
C:\PROGRAM FILES (X86)\MICROSOFT VISUAL STUDIO\2019\COMMUNITY\VC\TOOLS\MSVC\14.28.29910\LIB\X64\MSVCRTD.LIB
C:\PROGRAM FILES (X86)\MICROSOFT VISUAL STUDIO\2019\COMMUNITY\VC\TOOLS\MSVC\14.28.29910\LIB\X64\OLDNAMES.LIB
C:\PROGRAM FILES (X86)\MICROSOFT VISUAL STUDIO\2019\COMMUNITY\VC\TOOLS\MSVC\14.28.29910\LIB\X64\VCRUNTIMED.LIB
C:\PROGRAM FILES (X86)\WINDOWS KITS\10\LIB\10.0.18362.0\UCRT\X64\UCRTD.LIB
